%YAML 1.1
%TAG !u! tag:unity3d.com,2011:
--- !u!21 &2100000
Material:
  serializedVersion: 6
  m_ObjectHideFlags: 0
  m_PrefabParentObject: {fileID: 0}
  m_PrefabInternal: {fileID: 0}
  m_Name: Boat
  m_Shader: {fileID: 4800000, guid: eb40c30583e88e84d8ae082635ca298c, type: 3}
  m_ShaderKeywords: V_LP_LIGHT_ON V_LP_REFLECTIVE_PROBE _EMISSION
  m_LightmapFlags: 1
  m_CustomRenderQueue: -1
  stringTagMap: {}
  m_SavedProperties:
    serializedVersion: 2
    m_TexEnvs:
    - first:
        name: _BumpMap
      second:
        m_Texture: {fileID: 0}
        m_Scale: {x: 1, y: 1}
        m_Offset: {x: 0, y: 0}
    - first:
        name: _Cube
      second:
        m_Texture: {fileID: 0}
        m_Scale: {x: 1, y: 1}
        m_Offset: {x: 0, y: 0}
    - first:
        name: _DetailAlbedoMap
      second:
        m_Texture: {fileID: 0}
        m_Scale: {x: 1, y: 1}
        m_Offset: {x: 0, y: 0}
    - first:
        name: _DetailMask
      second:
        m_Texture: {fileID: 0}
        m_Scale: {x: 1, y: 1}
        m_Offset: {x: 0, y: 0}
    - first:
        name: _DetailNormalMap
      second:
        m_Texture: {fileID: 0}
        m_Scale: {x: 1, y: 1}
        m_Offset: {x: 0, y: 0}
    - first:
        name: _DisplaceTex_1
      second:
        m_Texture: {fileID: 0}
        m_Scale: {x: 1, y: 1}
        m_Offset: {x: 0, y: 0}
    - first:
        name: _DisplaceTex_2
      second:
        m_Texture: {fileID: 0}
        m_Scale: {x: 1, y: 1}
        m_Offset: {x: 0, y: 0}
    - first:
        name: _EmissionMap
      second:
        m_Texture: {fileID: 0}
        m_Scale: {x: 1, y: 1}
        m_Offset: {x: 0, y: 0}
    - first:
        name: _MainTex
      second:
        m_Texture: {fileID: 2800000, guid: c8f68b85e09b8c642a9f5dfd1cceea5d, type: 3}
        m_Scale: {x: 1, y: 1}
        m_Offset: {x: 0, y: 0}
    - first:
        name: _MetallicGlossMap
      second:
        m_Texture: {fileID: 0}
        m_Scale: {x: 1, y: 1}
        m_Offset: {x: 0, y: 0}
    - first:
        name: _OcclusionMap
      second:
        m_Texture: {fileID: 0}
        m_Scale: {x: 1, y: 1}
        m_Offset: {x: 0, y: 0}
    - first:
        name: _ParallaxMap
      second:
        m_Texture: {fileID: 0}
        m_Scale: {x: 1, y: 1}
        m_Offset: {x: 0, y: 0}
    - first:
        name: _PixelTex
      second:
        m_Texture: {fileID: 0}
        m_Scale: {x: 1, y: 1}
        m_Offset: {x: 0, y: 0}
    - first:
        name: _ReflectionTex
      second:
        m_Texture: {fileID: 0}
        m_Scale: {x: 1, y: 1}
        m_Offset: {x: 0, y: 0}
    - first:
        name: _SecondTex
      second:
        m_Texture: {fileID: 0}
        m_Scale: {x: 1, y: 1}
        m_Offset: {x: 0, y: 0}
    m_Floats:
    - first:
        name: _BUMP_LABEL
      second: 0
    - first:
        name: _BumpScale
      second: 1
    - first:
        name: _CubeIsHDR
      second: 0
    - first:
        name: _Cutoff
      second: 0.5
    - first:
        name: _DetailNormalMapScale
      second: 1
    - first:
        name: _DisplaceAmplitude
      second: 0.5
    - first:
        name: _DisplaceBlendType
      second: 1
    - first:
        name: _DisplaceDirection
      second: 45
    - first:
        name: _DisplaceFrequency
      second: 0.2
    - first:
        name: _DisplaceNoiseCoef
      second: -0.5
    - first:
        name: _DisplaceScriptSynchronize
      second: 0
    - first:
        name: _DisplaceSpeed
      second: 1
    - first:
        name: _DisplaceStrength
      second: 1
    - first:
        name: _DisplaceType
      second: 0
    - first:
        name: _Dsiplace_LABEL
      second: 0
    - first:
        name: _DstBlend
      second: 0
    - first:
        name: _FORWARD_RENDERING_LABEL
      second: 0
    - first:
        name: _GlossMapScale
      second: 1
    - first:
        name: _Glossiness
      second: 0.5
    - first:
        name: _GlossyReflections
      second: 1
    - first:
        name: _LowPolyLightID
      second: 1
    - first:
        name: _Metallic
      second: 0
    - first:
        name: _Mode
      second: 0
    - first:
        name: _OcclusionStrength
      second: 1
    - first:
        name: _PAPERCRAFT_LABEL
      second: 0
    - first:
        name: _PIXEL_LABEL
      second: 0
    - first:
        name: _PaperCrat
      second: 0
    - first:
        name: _Parallax
      second: 0.02
    - first:
        name: _PixelTex_AlphaOffset
      second: 0
    - first:
        name: _PixelTex_BlendType
      second: 0
    - first:
        name: _PixelTextureID
      second: 0
    - first:
        name: _REFLECTION_LABEL
      second: 0
    - first:
        name: _RENDERING_MODE_LABEL
      second: 0
    - first:
        name: _ReflectionDistortion
      second: 1
    - first:
        name: _ReflectionFresnel
      second: 1
    - first:
        name: _ReflectionRoughness
      second: 0
    - first:
        name: _ReflectionStrengthOffset
      second: -0.5
    - first:
        name: _SHADER_TYPE_LABEL
      second: 0
    - first:
        name: _SPECULAR_LABEL
      second: 0
    - first:
        name: _SamplingType
      second: 0
    - first:
        name: _SecondTex_AlphaOffset
      second: 0
    - first:
        name: _SecondTex_BlendType
      second: 0
    - first:
        name: _SecondTextureID
      second: 0
    - first:
        name: _SmoothnessTextureChannel
      second: 0
    - first:
        name: _SpecularHighlights
      second: 1
    - first:
        name: _SrcBlend
      second: 1
    - first:
        name: _UVSec
      second: 0
    - first:
        name: _VERTEX_LABEL
      second: 0
    - first:
        name: _V_WIRE_FixedSize
      second: 0
    - first:
        name: _V_WIRE_Size
      second: 0.5
    - first:
        name: _VertexColor
      second: 0
    - first:
        name: _ZWrite
      second: 1
    m_Colors:
    - first:
        name: _Color
      second: {r: 1, g: 1, b: 1, a: 1}
    - first:
        name: _DisplaceTex_1_Scroll
      second: {r: 0, g: 0, b: 0, a: 0}
    - first:
        name: _DisplaceTex_2_Scroll
      second: {r: 0, g: 0, b: 0, a: 0}
    - first:
        name: _EmissionColor
      second: {r: 0, g: 0, b: 0, a: 1}
    - first:
        name: _MainTex_Scroll
      second: {r: 0, g: 0, b: 0, a: 0}
    - first:
        name: _PixelTex_Scroll
      second: {r: 0, g: 0, b: 0, a: 0}
    - first:
        name: _ReflectColor
      second: {r: 1, g: 1, b: 1, a: 0.5}
    - first:
        name: _SecondTex_Scroll
      second: {r: 0, g: 0, b: 0, a: 0}
    - first:
        name: _V_WIRE_Color
      second: {r: 0, g: 0, b: 0, a: 1}
